homo;01;02;12;total;temps
1043;675;0;0;1718;1
625;447;0;0;1072;2
707;453;0;0;1160;3
594;378;0;0;972;4
590;312;0;0;902;5
566;304;0;0;870;6
634;315;0;0;949;7
662;305;0;0;967;8
681;281;0;0;962;9
665;284;0;0;949;10
683;247;0;0;930;11
663;236;0;0;899;12
694;260;0;0;954;13
722;240;0;0;962;14
745;256;0;0;1001;15
680;199;0;0;879;16
792;208;0;0;1000;17
788;202;0;0;990;18
782;166;0;0;948;19
727;160;0;0;887;20
830;151;0;0;981;21
775;167;0;0;942;22
860;128;0;0;988;23
812;140;0;0;952;24
765;126;0;0;891;25
773;122;0;0;895;26
864;129;0;0;993;27
831;114;0;0;945;28
841;109;0;0;950;29
798;87;0;0;885;30
820;97;0;0;917;31
929;95;0;0;1024;32
864;77;0;0;941;33
854;76;0;0;930;34
866;63;0;0;929;35
837;68;0;0;905;36
880;48;0;0;928;37
855;58;0;0;913;38
972;50;0;0;1022;39
831;44;0;0;875;40
871;59;0;0;930;41
900;47;0;0;947;42
886;51;0;0;937;43
885;36;0;0;921;44
887;44;0;0;931;45
904;43;0;0;947;46
922;40;0;0;962;47
897;30;0;0;927;48
966;35;0;0;1001;49
873;24;0;0;897;50
932;20;0;0;952;51
931;26;0;0;957;52
942;27;0;0;969;53
977;19;0;0;996;54
876;16;0;0;892;55
982;21;0;0;1003;56
909;18;0;0;927;57
899;22;0;0;921;58
936;19;0;0;955;59
927;22;0;0;949;60
1002;9;0;0;1011;61
871;11;0;0;882;62
945;16;0;0;961;63
989;14;0;0;1003;64
893;13;0;0;906;65
900;13;0;0;913;66
916;6;0;0;922;67
929;5;0;0;934;68
932;7;0;0;939;69
938;9;0;0;947;70
983;8;0;0;991;71
876;8;0;0;884;72
901;6;0;0;907;73
1012;5;0;0;1017;74
926;8;0;0;934;75
865;5;0;0;870;76
936;7;0;0;943;77
940;9;0;0;949;78
908;6;0;0;914;79
1008;9;0;0;1017;80
891;12;0;0;903;81
910;17;0;0;927;82
878;15;0;0;893;83
973;14;0;0;987;84
981;16;0;0;997;85
960;9;0;0;969;86
871;8;0;0;879;87
918;12;0;0;930;88
971;15;0;0;986;89
954;15;0;0;969;90
868;7;0;0;875;91
900;13;0;0;913;92
970;5;0;0;975;93
964;6;0;0;970;94
967;12;0;0;979;95
904;8;0;0;912;96
873;3;0;0;876;97
853;9;0;0;862;98
978;6;0;0;984;99
1010;7;0;0;1017;100
955;4;0;0;959;101
877;6;0;0;883;102
887;4;0;0;891;103
939;2;0;0;941;104
911;9;0;0;920;105
1054;6;0;0;1060;106
896;4;0;0;900;107
859;10;0;0;869;108
948;7;0;0;955;109
938;9;0;0;947;110
989;6;0;0;995;111
982;12;0;0;994;112
893;11;0;0;904;113
880;13;0;0;893;114
850;5;0;0;855;115
959;10;0;0;969;116
921;8;0;0;929;117
968;9;0;0;977;118
933;8;0;0;941;119
911;14;0;0;925;120
904;7;0;0;911;121
935;12;0;0;947;122
945;10;0;0;955;123
920;13;0;0;933;124
1008;11;0;0;1019;125
896;8;0;0;904;126
886;7;0;0;893;127
980;8;0;0;988;128
896;5;0;0;901;129
987;7;0;0;994;130
863;5;0;0;868;131
982;1;0;0;983;132
926;4;0;0;930;133
939;3;0;0;942;134
867;3;0;0;870;135
994;5;0;0;999;136
939;2;0;0;941;137
948;1;0;0;949;138
912;1;0;0;913;139
977;4;0;0;981;140
932;8;0;0;940;141
957;4;0;0;961;142
897;1;0;0;898;143
933;2;0;0;935;144
926;1;0;0;927;145
965;5;0;0;970;146
926;0;0;0;926;147
940;0;0;0;940;148
952;1;0;0;953;149
944;0;0;0;944;150
951;0;0;0;951;151
903;0;0;0;903;152
899;0;0;0;899;153
987;0;0;0;987;154
883;0;0;0;883;155
940;0;0;0;940;156
959;0;0;0;959;157
873;0;0;0;873;158
1012;0;0;0;1012;159
945;0;0;0;945;160
958;0;0;0;958;161
931;0;0;0;931;162
925;0;0;0;925;163
925;0;0;0;925;164
903;0;0;0;903;165
960;0;0;0;960;166
911;0;0;0;911;167
1011;0;0;0;1011;168
999;0;0;0;999;169
869;0;0;0;869;170
895;0;0;0;895;171
961;0;0;0;961;172
915;0;0;0;915;173
969;0;0;0;969;174
925;0;0;0;925;175
923;0;0;0;923;176
972;0;0;0;972;177
934;0;0;0;934;178
920;0;0;0;920;179
965;0;0;0;965;180
941;0;0;0;941;181
898;0;0;0;898;182
984;0;0;0;984;183
943;0;0;0;943;184
914;0;0;0;914;185
933;0;0;0;933;186
920;0;0;0;920;187
962;0;0;0;962;188
917;0;0;0;917;189
923;0;0;0;923;190
984;0;0;0;984;191
932;0;0;0;932;192
893;0;0;0;893;193
969;0;0;0;969;194
964;0;0;0;964;195
918;0;0;0;918;196
992;0;0;0;992;197
1025;0;0;0;1025;198
879;0;0;0;879;199
883;0;0;0;883;200
978;0;0;0;978;201
914;0;0;0;914;202
937;0;0;0;937;203
950;0;0;0;950;204
913;0;0;0;913;205
998;0;0;0;998;206
965;0;0;0;965;207
932;0;0;0;932;208
954;0;0;0;954;209
908;0;0;0;908;210
927;0;0;0;927;211
870;0;0;0;870;212
971;0;0;0;971;213
972;0;0;0;972;214
939;0;0;0;939;215
966;0;0;0;966;216
895;0;0;0;895;217
946;0;0;0;946;218
872;0;0;0;872;219
984;0;0;0;984;220
970;0;0;0;970;221
928;0;0;0;928;222
925;0;0;0;925;223
870;0;0;0;870;224
955;0;0;0;955;225
1034;0;0;0;1034;226
919;0;0;0;919;227
939;0;0;0;939;228
930;0;0;0;930;229
983;0;0;0;983;230
907;0;0;0;907;231
920;0;0;0;920;232
986;0;0;0;986;233
946;0;0;0;946;234
959;0;0;0;959;235
915;0;0;0;915;236
972;0;0;0;972;237
952;0;0;0;952;238
928;0;0;0;928;239
914;0;0;0;914;240
944;0;0;0;944;241
928;0;0;0;928;242
931;0;0;0;931;243
954;0;0;0;954;244
1002;0;0;0;1002;245
926;0;0;0;926;246
945;0;0;0;945;247
913;0;0;0;913;248
905;0;0;0;905;249
959;0;0;0;959;250
952;0;0;0;952;251
984;0;0;0;984;252
935;0;0;0;935;253
918;0;0;0;918;254
921;0;0;0;921;255
922;0;0;0;922;256
971;0;0;0;971;257
877;0;0;0;877;258
968;0;0;0;968;259
930;0;0;0;930;260
986;0;0;0;986;261
951;0;0;0;951;262
874;0;0;0;874;263
912;0;0;0;912;264
968;0;0;0;968;265
1030;0;0;0;1030;266
936;0;0;0;936;267
870;0;0;0;870;268
954;0;0;0;954;269
931;0;0;0;931;270
966;0;0;0;966;271
880;0;0;0;880;272
971;0;0;0;971;273
921;0;0;0;921;274
941;0;0;0;941;275
898;0;0;0;898;276
999;0;0;0;999;277
977;0;0;0;977;278
900;0;0;0;900;279
946;0;0;0;946;280
961;0;0;0;961;281
884;0;0;0;884;282
935;0;0;0;935;283
935;0;0;0;935;284
1007;0;0;0;1007;285
984;0;0;0;984;286
910;0;0;0;910;287
884;0;0;0;884;288
961;0;0;0;961;289
871;0;0;0;871;290
940;0;0;0;940;291
966;0;0;0;966;292
982;0;0;0;982;293
882;0;0;0;882;294
919;0;0;0;919;295
951;0;0;0;951;296
943;0;0;0;943;297
920;0;0;0;920;298
991;0;0;0;991;299
915;0;0;0;915;300